D:\storeproject\netbeans2\StoreProject\src\main\java\model\Receipt.java
D:\storeproject\netbeans2\StoreProject\src\main\java\com\mycompany\storeproject\poc\TestDeletProduct.java
D:\storeproject\netbeans2\StoreProject\src\main\java\com\mycompany\storeproject\poc\TestConnection.java
D:\storeproject\netbeans2\StoreProject\src\main\java\com\mycompany\storeproject\poc\TestSelectProduct.java
D:\storeproject\netbeans2\StoreProject\src\main\java\model\ReceiptDetail.java
D:\storeproject\netbeans2\StoreProject\src\main\java\database\Database.java
D:\storeproject\netbeans2\StoreProject\src\main\java\model\Customer.java
D:\storeproject\netbeans2\StoreProject\src\main\java\com\mycompany\storeproject\poc\testReceipt.java
D:\storeproject\netbeans2\StoreProject\src\main\java\dao\ProductDao.java
D:\storeproject\netbeans2\StoreProject\src\main\java\model\Product.java
D:\storeproject\netbeans2\StoreProject\src\main\java\com\mycompany\storeproject\poc\TestUpdateProduct.java
D:\storeproject\netbeans2\StoreProject\src\main\java\model\User.java
D:\storeproject\netbeans2\StoreProject\src\main\java\dao\DaoInterface.java
D:\storeproject\netbeans2\StoreProject\src\main\java\dao\ReceiptDao.java
D:\storeproject\netbeans2\StoreProject\src\main\java\com\mycompany\storeproject\poc\TestInsertProduct.java
